version="1.0.0"
tags={
	"Map"
	"Gameplay"
	"Utilities"
	"Military"
}
dependencies= {
	"Primo Victoria"
}
name="Primo Victoria: Passable Rivers"
supported_version="1.12.*"
path="C:/Users/mjten/Documents/Paradox Interactive/Hearts of Iron IV/mod/pv_passable_rivers"
